rwxr-xr-x  0/10      0 Oct 21 09:14 1983 ./
rw-r--r--  0/10   7385 Mar  9 04:58 1983 ./B.10
rw-r--r--  0/10   7231 Mar  9 04:58 1983 ./B.10r
rw-r--r--  0/10   8017 Mar  9 04:58 1983 ./B.11
rw-r--r--  0/10   7665 Mar  9 04:58 1983 ./B.11r
rw-r--r--  0/10   9070 Mar  9 04:58 1983 ./basker.b.12r
rw-r--r--  0/10   9374 Mar  9 04:58 1983 ./basker.i.12r
rw-r--r--  0/10   9038 Mar  9 04:58 1983 ./B.12
rw-r--r--  0/10   8305 Mar  9 04:58 1983 ./B.12r
rw-r--r--  0/10  10854 Mar  9 04:58 1983 ./B.14
rw-r--r--  0/10  10862 Mar  9 04:58 1983 ./B.14r
rw-r--r--  0/10  12878 Mar  9 04:58 1983 ./B.16
rw-r--r--  0/10  12131 Mar  9 04:58 1983 ./B.16r
rw-r--r--  0/10  15262 Mar  9 04:58 1983 ./B.18
rw-r--r--  0/10  15246 Mar  9 04:58 1983 ./B.18r
rw-r--r--  0/10  17328 Mar  9 04:58 1983 ./B.20
rw-r--r--  0/10  17177 Mar  9 04:58 1983 ./B.20r
rw-r--r--  0/10  20463 Mar  9 04:58 1983 ./B.22
rw-r--r--  0/10  20547 Mar  9 04:58 1983 ./B.22r
rw-r--r--  0/10  23378 Mar  9 04:58 1983 ./B.24
rw-r--r--  0/10  22698 Mar  9 04:58 1983 ./B.24r
rw-r--r--  0/10  30084 Mar  9 04:58 1983 ./B.28
rw-r--r--  0/10  29624 Mar  9 04:58 1983 ./B.28r
rw-r--r--  0/10  49924 Mar  9 04:58 1983 ./B.36
rw-r--r--  0/10   4836 Mar  9 04:59 1983 ./B.6
rw-r--r--  0/10   4845 Mar  9 04:59 1983 ./B.6r
rw-r--r--  0/10   5227 Mar  9 04:59 1983 ./B.7
rw-r--r--  0/10   5162 Mar  9 04:59 1983 ./B.7r
rw-r--r--  0/10   5787 Mar  9 04:59 1983 ./B.8
rw-r--r--  0/10   5907 Mar  9 04:59 1983 ./B.8r
rw-r--r--  0/10   6539 Mar  9 04:59 1983 ./B.9
rw-r--r--  0/10   6794 Mar  9 04:59 1983 ./B.9r
rw-r--r--  0/10   7331 Mar  9 04:59 1983 ./I.10
rw-r--r--  0/10   7370 Mar  9 04:59 1983 ./I.10r
rw-r--r--  0/10   9258 Mar  9 04:59 1983 ./basker.r.12r
rw-r--r--  0/10   8174 Mar  9 04:59 1983 ./I.11
rw-r--r--  0/10   7875 Mar  9 04:59 1983 ./I.11r
rw-r--r--  0/10   9231 Mar  9 04:59 1983 ./I.12
rw-r--r--  0/10   8541 Mar  9 04:59 1983 ./I.12r
rw-r--r--  0/10  11095 Mar  9 04:59 1983 ./I.14
rw-r--r--  0/10  11313 Mar  9 04:59 1983 ./I.14r
rw-r--r--  0/10  13860 Mar  9 04:59 1983 ./I.16
rw-r--r--  0/10  12948 Mar  9 04:59 1983 ./I.16r
rw-r--r--  0/10  16377 Mar  9 04:59 1983 ./I.18
rw-r--r--  0/10  16198 Mar  9 04:59 1983 ./I.18r
rw-r--r--  0/10  18908 Mar  9 04:59 1983 ./I.20
rw-r--r--  0/10  18684 Mar  9 04:59 1983 ./I.20r
rw-r--r--  0/10  22364 Mar  9 04:59 1983 ./I.22
rw-r--r--  0/10  22315 Mar  9 04:59 1983 ./I.22r
rw-r--r--  0/10  25932 Mar  9 04:59 1983 ./I.24
rw-r--r--  0/10  25059 Mar  9 04:59 1983 ./I.24r
rw-r--r--  0/10  33664 Mar  9 04:59 1983 ./I.28
rw-r--r--  0/10  32877 Mar  9 04:59 1983 ./I.28r
rw-r--r--  0/10  52611 Mar  9 04:59 1983 ./I.36
rw-r--r--  0/10   4748 Mar  9 04:59 1983 ./I.6
rw-r--r--  0/10   4621 Mar  9 04:59 1983 ./I.6r
rw-r--r--  0/10     68 Mar  9 04:59 1983 ./railmag
rw-r--r--  0/10   9390 Mar  9 04:59 1983 ./bocklin.14r
rw-r--r--  0/10   7070 Mar  9 04:59 1983 ./meteor.b.8
rw-r--r--  0/10  10130 Mar  9 04:59 1983 ./basker.b.12
rw-r--r--  0/10  10550 Mar  9 04:59 1983 ./basker.i.12
rw-r--r--  0/10   5281 Mar  9 05:00 1983 ./I.7
rw-r--r--  0/10  10370 Mar  9 04:59 1983 ./basker.r.12
rw-r--r--  0/10   6970 Mar  9 04:59 1983 ./nonie.i.8
rw-r--r--  0/10   7220 Mar  9 04:59 1983 ./meteor.i.8
rw-r--r--  0/10   8570 Mar  9 04:59 1983 ./nonie.i.10
rw-r--r--  0/10   7470 Mar  9 04:59 1983 ./gacham.b.10
rw-r--r--  0/10   7645 Mar  9 04:59 1983 ./gacham.i.10
rw-r--r--  0/10   7445 Mar  9 04:59 1983 ./gacham.r.10
rw-r--r--  0/10   8920 Mar  9 04:59 1983 ./bodoni.b.10
rw-r--r--  0/10   7870 Mar  9 04:59 1983 ./bodoni.i.10
rw-r--r--  0/10   8770 Mar  9 04:59 1983 ./bodoni.r.10
rw-r--r--  0/10   7020 Mar  9 04:59 1983 ./meteor.r.8
rw-r--r--  0/10   9290 Mar  9 04:59 1983 ./meteor.r.10
rw-r--r--  0/10  11145 Mar  9 04:59 1983 ./meteor.r.12
rw-r--r--  0/10   9410 Mar  9 04:59 1983 ./meteor.i.10
rw-r--r--  0/10  11600 Mar  9 04:59 1983 ./meteor.b.12
rw-r--r--  0/10   9470 Mar  9 04:59 1983 ./meteor.b.10
rw-r--r--  0/10   6945 Mar  9 04:59 1983 ./nonie.b.8
rw-r--r--  0/10   7270 Mar  9 05:00 1983 ./nonie.r.8
rw-r--r--  0/10  10795 Mar  9 05:00 1983 ./nonie.i.12
rw-r--r--  0/10   8990 Mar  9 05:00 1983 ./nonie.b.10
rw-r--r--  0/10   8990 Mar  9 05:00 1983 ./nonie.r.10
rw-r--r--  0/10  10200 Mar  9 05:00 1983 ./nonie.r.12
rw-r--r--  0/10  10725 Mar  9 05:00 1983 ./nonie.b.12
rw-r--r--  0/10  17333 Mar  9 05:00 1983 ./sign.22
rw-r--r--  0/10   9050 Mar  9 05:00 1983 ./ugramma.10r
rw-r--r--  0/10   5114 Mar  9 05:00 1983 ./I.7r
rw-r--r--  0/10  28558 Mar  9 05:00 1983 ./bocklin.28
rw-r--r--  0/10  21182 Mar  9 05:00 1983 ./mona.24
rw-r--r--  0/10   7530 Mar  9 05:00 1983 ./pip.16
rw-r--r--  0/10  10274 Mar  9 05:00 1983 ./bocklin.14
rw-r--r--  0/10   8520 Mar  9 05:00 1983 ./apl.10
rw-r--r--  0/10   4252 Mar  9 05:00 1983 ./cyrillic.12
rw-r--r--  0/10   9474 Mar  9 05:00 1983 ./shadow.16
rw-r--r--  0/10  10470 Mar  9 05:00 1983 ./hebrew.16
rw-r--r--  0/10   7245 Mar  9 05:00 1983 ./delegate.i.12
rw-r--r--  0/10   9343 Mar  9 05:00 1983 ./chess.18
rw-r--r--  0/10   8445 Mar  9 05:00 1983 ./delegate.r.12
rw-r--r--  0/10   8470 Mar  9 05:00 1983 ./fix.10
rw-r--r--  0/10  10130 Mar  9 05:00 1983 ./fix.12
rw-r--r--  0/10  20010 Mar  9 05:00 1983 ./fix.14
rw-r--r--  0/10   5742 Mar  9 05:00 1983 ./fix.6
rw-r--r--  0/10   6850 Mar  9 05:00 1983 ./fix.9
rw-r--r--  0/10   5918 Mar  9 05:00 1983 ./I.8
rw-r--r--  0/10   5851 Mar  9 05:00 1983 ./I.8r
rw-r--r--  0/10  14051 Mar  9 05:00 1983 ./oldenglish.18
rw-r--r--  0/10  11059 Mar  9 05:00 1983 ./oldenglish.14
rw-r--r--  0/10   6580 Mar  9 05:00 1983 ./I.9
rw-r--r--  0/10   6638 Mar  9 05:00 1983 ./playbill.10
rw-r--r--  0/10   7130 Mar  9 05:00 1983 ./oldenglish.8
rw-r--r--  0/10   6759 Mar  9 05:00 1983 ./I.9r
rw-r--r--  0/10  28820 Mar  9 05:00 1983 ./bocklin.28r
rw-r--r--  0/10   8910 Mar  9 05:00 1983 ./bodoni.b.10r
rw-r--r--  0/10   8194 Mar  9 05:00 1983 ./bodoni.i.10r
rw-r--r--  0/10  52611 Mar  9 05:00 1983 ./I.sr.36
rw-r--r--  0/10   6730 Jun 23 09:22 1983 ./R.10
rw-r--r--  0/10   6718 Jun 23 09:22 1983 ./R.10r
rw-r--r--  0/10   7420 Mar  9 05:00 1983 ./R.11
rw-r--r--  0/10   7053 Mar  9 05:00 1983 ./R.11r
rw-r--r--  0/10   8257 Mar  9 05:00 1983 ./R.12
rw-r--r--  0/10   7667 Mar  9 05:00 1983 ./R.12r
rw-r--r--  0/10   8530 Mar  9 05:00 1983 ./bodoni.r.10r
rw-r--r--  0/10  10164 Mar  9 05:00 1983 ./R.14
rw-r--r--  0/10   7021 Mar  9 05:00 1983 ./delegate.b.12
rw-r--r--  0/10  10060 Mar  9 05:00 1983 ./R.14r
rw-r--r--  0/10  12235 Mar  9 05:00 1983 ./R.16
rw-r--r--  0/10  11297 Mar  9 05:01 1983 ./R.16r
rw-r--r--  0/10  12079 Mar  9 05:01 1983 ./hebrew.36
rw-r--r--  0/10   9336 Mar  9 05:01 1983 ./chess.18r
rw-r--r--  0/10  18348 Mar  9 05:01 1983 ./clarendon.18
rw-r--r--  0/10  13270 Mar  9 05:01 1983 ./countdown.22
rw-r--r--  0/10   7170 Mar  9 05:01 1983 ./greek.10
rw-r--r--  0/10   6305 Mar  9 05:01 1983 ./hebrew.24
rw-r--r--  0/10  13622 Mar  9 05:01 1983 ./clarendon.14r
rw-r--r--  0/10  12885 Mar  9 05:01 1983 ./clarendon.14
rw-r--r--  0/10   8257 Mar  9 05:01 1983 ./stare.r.14
rw-r--r--  0/10  14895 Mar  9 05:01 1983 ./graphics.14
rw-r--r--  0/10  10470 Mar  9 05:01 1983 ./hebrew.17
rw-r--r--  0/10  10681 Mar  9 05:01 1983 ./cm.r.9
rw-r--r--  0/10  14516 Mar  9 05:01 1983 ./cm.r.11
rw-r--r--  0/10  15955 Mar  9 05:01 1983 ./cm.b.12
rw-r--r--  0/10   7982 Mar  9 05:01 1983 ./otimes.r.10r
rw-r--r--  0/10   6942 Mar  9 05:01 1983 ./otimes.s.10r
rw-r--r--  0/10  16957 Mar  9 05:01 1983 ./cm.i.12
rw-r--r--  0/10   9561 Mar  9 05:01 1983 ./cm.r.6
rw-r--r--  0/10  10855 Mar  9 05:01 1983 ./cm.b.7
rw-r--r--  0/10  15862 Mar  9 05:01 1983 ./cm.r.12
rw-r--r--  0/10  14790 Mar  9 05:01 1983 ./cm.b.11
rw-r--r--  0/10  10021 Mar  9 05:01 1983 ./cm.i.6
rw-r--r--  0/10  11186 Mar  9 05:01 1983 ./cm.i.7
rw-r--r--  0/10  12931 Mar  9 05:01 1983 ./cm.i.9
rw-r--r--  0/10  10969 Mar  9 05:01 1983 ./cm.r.10
rw-r--r--  0/10   8438 Mar  9 05:01 1983 ./otimes.b.10r
rw-r--r--  0/10   9338 Mar  9 05:01 1983 ./otimes.i.10r
rw-r--r--  0/10  13365 Mar  9 05:01 1983 ./cm.b.10
rw-r--r--  0/10   8920 Mar  9 05:01 1983 ./ugramma.10
rw-r--r--  0/10  10651 Mar  9 05:01 1983 ./cm.r.8
rw-r--r--  0/10  14131 Mar  9 05:01 1983 ./cm.i.10
rw-r--r--  0/10  14386 Mar  9 05:01 1983 ./R.18
rw-r--r--  0/10  18194 Mar  9 05:01 1983 ./clarendon.18r
rw-r--r--  0/10  14256 Mar  9 05:01 1983 ./R.18r
rw-r--r--  0/10  16749 Mar  9 05:01 1983 ./R.20
rw-r--r--  0/10  16139 Mar  9 05:01 1983 ./R.20r
rw-r--r--  0/10  19292 Mar  9 05:01 1983 ./R.22
rw-r--r--  0/10  19383 Mar  9 05:01 1983 ./R.22r
rw-r--r--  0/10  22250 Mar  9 05:01 1983 ./R.24
rw-r--r--  0/10  21476 Mar  9 05:01 1983 ./R.24r
rw-r--r--  0/10  28707 Mar  9 05:02 1983 ./R.28
rw-r--r--  0/10  28210 Mar  9 05:02 1983 ./R.28r
rw-r--r--  0/10  44733 Mar  9 05:02 1983 ./R.36
rw-r--r--  0/10   4511 Mar  9 05:02 1983 ./R.6
rw-r--r--  0/10   4409 Mar  9 05:02 1983 ./R.6r
rw-r--r--  0/10   5065 Mar  9 05:02 1983 ./R.7
rw-r--r--  0/10   4718 Mar  9 05:02 1983 ./R.7r
rw-r--r--  0/10   5538 Mar  9 05:02 1983 ./R.8
rw-r--r--  0/10   5399 Mar  9 05:02 1983 ./R.8r
rw-r--r--  0/10   5969 Mar  9 05:02 1983 ./R.9
rw-r--r--  0/10   6206 Mar  9 05:02 1983 ./R.9r
rw-r--r--  0/10   6904 Mar  9 05:02 1983 ./S.10
rw-r--r--  0/10   6857 Mar  9 05:02 1983 ./S.10r
rw-r--r--  0/10   7708 Mar  9 05:02 1983 ./S.11
rw-r--r--  0/10   7339 Mar  9 05:02 1983 ./S.11r
rw-r--r--  0/10   8808 Mar  9 05:02 1983 ./S.12
rw-r--r--  0/10  14342 Mar  9 05:02 1983 ./cm.b.10r
rw-r--r--  0/10  14738 Mar  9 05:02 1983 ./cm.b.11r
rw-r--r--  0/10   8660 Mar  9 05:02 1983 ./S.12r
rw-r--r--  0/10  10360 Mar  9 05:02 1983 ./S.14
rw-r--r--  0/10  10295 Mar  9 05:02 1983 ./S.14r
rw-r--r--  0/10  12527 Mar  9 05:02 1983 ./S.16
rw-r--r--  0/10  12432 Mar  9 05:02 1983 ./S.16r
rw-r--r--  0/10  15600 Mar  9 05:02 1983 ./S.18
rw-r--r--  0/10  17474 Mar  9 05:02 1983 ./cm.b.12r
rw-r--r--  0/10  14957 Mar  9 05:02 1983 ./S.18r
rw-r--r--  0/10  17520 Mar  9 05:02 1983 ./S.20
rw-r--r--  0/10  17248 Mar  9 05:02 1983 ./S.20r
rw-r--r--  0/10  20193 Mar  9 05:02 1983 ./S.22
rw-r--r--  0/10  20255 Mar  9 05:02 1983 ./S.22r
rw-r--r--  0/10  23777 Mar  9 05:02 1983 ./S.24
rw-r--r--  0/10  22733 Mar  9 05:02 1983 ./S.24r
rw-r--r--  0/10  29986 Mar  9 05:02 1983 ./S.28
rw-r--r--  0/10  29474 Mar  9 05:02 1983 ./S.28r
rw-r--r--  0/10  47785 Mar  9 05:02 1983 ./S.36
rw-r--r--  0/10   4812 Mar  9 05:02 1983 ./S.6
rw-r--r--  0/10   4539 Mar  9 05:02 1983 ./S.6r
rw-r--r--  0/10   5192 Mar  9 05:02 1983 ./S.7
rw-r--r--  0/10   4878 Mar  9 05:02 1983 ./S.7r
rw-r--r--  0/10   5685 Mar  9 05:02 1983 ./S.8
rw-r--r--  0/10   5626 Mar  9 05:02 1983 ./S.8r
rw-r--r--  0/10   6277 Mar  9 05:02 1983 ./S.9
rw-r--r--  0/10   6273 Mar  9 05:02 1983 ./S.9r
rw-r--r--  0/10   8298 Mar  9 05:02 1983 ./apl.10r
rw-r--r--  0/10  20264 Mar  9 05:02 1983 ./mona.24r
rw-r--r--  0/10   6795 Mar  9 05:02 1983 ./delegate.b.12.
rw-r--r--  0/10  10604 Mar  9 05:02 1983 ./script.18r
rw-r--r--  0/10  43928 Mar  9 05:02 1983 ./R.36r
rw-r--r--  0/10  51861 Mar  9 05:03 1983 ./I.36r
rw-r--r--  0/10  49262 Mar  9 05:03 1983 ./B.36r
rw-r--r--  0/10  46762 Mar  9 05:03 1983 ./S.36r
rw-r--r--  0/10   4042 Mar  9 05:03 1983 ./cyrillic.12.r
rw-r--r--  0/10  11318 Mar  9 05:03 1983 ./cm.b.7r
rw-r--r--  0/10   6943 Mar  9 05:03 1983 ./delegate.b.12r
rw-r--r--  0/10   7574 Mar  9 05:03 1983 ./delegate.i.12r
rw-r--r--  0/10  15134 Mar  9 05:03 1983 ./cm.i.10r
rw-r--r--  0/10  18266 Mar  9 05:03 1983 ./cm.i.12r
rw-r--r--  0/10  11498 Mar  9 05:03 1983 ./cm.i.6r
rw-r--r--  0/10  11822 Mar  9 05:03 1983 ./cm.i.7r
rw-r--r--  0/10  14810 Mar  9 05:03 1983 ./cm.i.9r
rw-r--r--  0/10  11210 Mar  9 05:03 1983 ./cm.r.10r
rw-r--r--  0/10  14738 Mar  9 05:03 1983 ./cm.r.11r
rw-r--r--  0/10  17402 Mar  9 05:03 1983 ./cm.r.12r
rw-r--r--  0/10  11066 Mar  9 05:03 1983 ./cm.r.6r
rw-r--r--  0/10  11282 Mar  9 05:03 1983 ./cm.r.8r
rw-r--r--  0/10  12218 Mar  9 05:03 1983 ./cm.r.9r
rw-r--r--  0/10   5227 Mar  9 05:03 1983 ./stare.b.8
rw-r--r--  0/10  14414 Mar  9 05:03 1983 ./countdown.22r
rw-r--r--  0/10   4042 Mar  9 05:03 1983 ./cyrillic.12r
rw-r--r--  0/10   8358 Mar  9 05:03 1983 ./delegate.r.12r
rw-r--r--  0/10   6269 Mar  9 05:03 1983 ./st.b.10r
rw-r--r--  0/10   8458 Mar  9 05:03 1983 ./fix.10r
rw-r--r--  0/10   9478 Mar  9 05:03 1983 ./fix.12r
rw-r--r--  0/10  16195 Mar  9 05:03 1983 ./fix.14r
rw-r--r--  0/10   4766 Mar  9 05:03 1983 ./fix.6r
rw-r--r--  0/10   5618 Mar  9 05:03 1983 ./fix.9r
rw-r--r--  0/10   7742 Mar  9 05:03 1983 ./gacham.b.10r
rw-r--r--  0/10   7994 Mar  9 05:03 1983 ./gacham.i.10r
rw-r--r--  0/10   7358 Mar  9 05:03 1983 ./gacham.r.10r
rw-r--r--  0/10  15818 Mar  9 05:03 1983 ./graphics.14r
rw-r--r--  0/10   7610 Mar  9 05:03 1983 ./greek.10r
rw-r--r--  0/10  10922 Mar  9 05:03 1983 ./hebrew.16r
rw-r--r--  0/10  10922 Mar  9 05:03 1983 ./hebrew.17r
rw-r--r--  0/10   6098 Mar  9 05:03 1983 ./hebrew.24r
rw-r--r--  0/10  11789 Mar  9 05:03 1983 ./hebrew.36r
rw-r--r--  0/10   8562 Mar  9 05:04 1983 ./meteor.b.10r
rw-r--r--  0/10  11325 Mar  9 05:04 1983 ./meteor.b.12r
rw-r--r--  0/10   7182 Mar  9 05:04 1983 ./meteor.b.8r
rw-r--r--  0/10   8602 Mar  9 05:04 1983 ./meteor.i.10r
rw-r--r--  0/10   7234 Mar  9 05:04 1983 ./meteor.i.8r
rw-r--r--  0/10   8282 Mar  9 05:04 1983 ./meteor.r.10r
rw-r--r--  0/10  10700 Mar  9 05:04 1983 ./meteor.r.12r
rw-r--r--  0/10   6854 Mar  9 05:04 1983 ./meteor.r.8r
rw-r--r--  0/10   5281 Mar  9 05:04 1983 ./stare.i.8
rw-r--r--  0/10   5065 Mar  9 05:04 1983 ./stare.r.8
rw-r--r--  0/10   8158 Mar  9 05:04 1983 ./nonie.b.10r
rw-r--r--  0/10  10280 Mar  9 05:04 1983 ./nonie.b.12r
rw-r--r--  0/10   6590 Mar  9 05:04 1983 ./nonie.b.8r
rw-r--r--  0/10   7938 Mar  9 05:04 1983 ./nonie.i.10r
rw-r--r--  0/10  10320 Mar  9 05:04 1983 ./nonie.i.12r
rw-r--r--  0/10   6626 Mar  9 05:04 1983 ./nonie.i.8r
rw-r--r--  0/10   8034 Mar  9 05:04 1983 ./nonie.r.10r
rw-r--r--  0/10   9710 Mar  9 05:04 1983 ./nonie.r.12r
rw-r--r--  0/10   6630 Mar  9 05:04 1983 ./nonie.r.8r
rw-r--r--  0/10   5787 Mar  9 05:04 1983 ./stare.b.9
rw-r--r--  0/10   6326 Mar  9 05:04 1983 ./oldenglish.8r
rw-r--r--  0/10   6310 Mar  9 05:04 1983 ./pip.16r
rw-r--r--  0/10   5740 Mar  9 05:04 1983 ./playbill.10r
rw-r--r--  0/10   5918 Mar  9 05:04 1983 ./stare.i.9
rw-r--r--  0/10   8380 Mar  9 05:04 1983 ./shadow.16r
rw-r--r--  0/10  17466 Mar  9 05:04 1983 ./sign.22r
rw-r--r--  0/10   8995 Mar  9 05:04 1983 ./otimes.i.10
rw-r--r--  0/10   8220 Mar  9 05:04 1983 ./otimes.r.10
rw-r--r--  0/10   6895 Mar  9 05:04 1983 ./otimes.s.10
rw-r--r--  0/10   5704 Mar  9 05:04 1983 ./times.b.10
rw-r--r--  0/10   5538 Mar  9 05:04 1983 ./stare.r.9
rw-r--r--  0/10   6539 Mar  9 05:04 1983 ./stare.b.10
rw-r--r--  0/10   6580 Mar  9 05:04 1983 ./stare.i.10
rw-r--r--  0/10   6462 Mar  9 05:04 1983 ./st.i.10r
rw-r--r--  0/10   4508 Mar  9 05:04 1983 ./h19.10
rw-r--r--  0/10   4270 Mar  9 05:04 1983 ./h19.10r
rw-r--r--  0/10  13964 Mar  9 05:04 1983 ./oldenglish.18r
rw-r--r--  0/10   5951 Mar  9 05:04 1983 ./st.r.10r
rw-r--r--  0/10   5969 Mar  9 05:04 1983 ./stare.r.10
rw-r--r--  0/10   7385 Mar  9 05:04 1983 ./stare.b.11
rw-r--r--  0/10   7331 Mar  9 05:04 1983 ./stare.i.11
rw-r--r--  0/10   6812 Mar  9 05:04 1983 ./stare.r.11
rw-r--r--  0/10   8017 Mar  9 05:04 1983 ./stare.b.12
rw-r--r--  0/10   8174 Mar  9 05:04 1983 ./stare.i.12
rw-r--r--  0/10   7420 Mar  9 05:04 1983 ./stare.r.12
rw-r--r--  0/10   5114 Mar  9 05:04 1983 ./stare.i.8r
rw-r--r--  0/10   5851 Mar  9 05:05 1983 ./stare.i.9r
rw-r--r--  0/10   6759 Mar  9 05:05 1983 ./stare.i.10r
rw-r--r--  0/10   7370 Mar  9 05:05 1983 ./stare.i.11r
rw-r--r--  0/10   7875 Mar  9 05:05 1983 ./stare.i.12r
rw-r--r--  0/10   5162 Mar  9 05:05 1983 ./stare.b.8r
rw-r--r--  0/10   5907 Mar  9 05:05 1983 ./stare.b.9r
rw-r--r--  0/10   6794 Mar  9 05:05 1983 ./stare.b.10r
rw-r--r--  0/10   7231 Mar  9 05:05 1983 ./stare.b.11r
rw-r--r--  0/10    277 Mar  9 05:05 1983 ./cyr.o
rw-r--r--  0/10   7665 Mar  9 05:05 1983 ./stare.b.12r
rw-r--r--  0/10   4718 Mar  9 05:05 1983 ./stare.r.8r
rw-r--r--  0/10   5399 Mar  9 05:05 1983 ./stare.r.9r
rw-r--r--  0/10   6206 Mar  9 05:05 1983 ./stare.r.10r
rw-r--r--  0/10   6718 Mar  9 05:05 1983 ./stare.r.11r
rw-r--r--  0/10   7053 Mar  9 05:05 1983 ./stare.r.12r
rw-r--r--  0/10  12026 Mar  9 05:05 1983 ./script.18
rw-r--r--  0/10  10164 Mar  9 05:05 1983 ./stare.r.16
rw-r--r--  0/10   7667 Mar  9 05:05 1983 ./stare.r.14r
rw-r--r--  0/10  10060 Mar  9 05:05 1983 ./stare.r.16r
rw-r--r--  0/10   9231 Mar  9 05:05 1983 ./stare.i.14
rw-r--r--  0/10   8541 Mar  9 05:05 1983 ./stare.i.14r
rw-r--r--  0/10  11095 Mar  9 05:05 1983 ./stare.i.16
rw-r--r--  0/10  11313 Mar  9 05:05 1983 ./stare.i.16r
rw-r--r--  0/10   9038 Mar  9 05:05 1983 ./stare.b.14
rw-r--r--  0/10   8305 Mar  9 05:05 1983 ./stare.b.14r
rw-r--r--  0/10  10854 Mar  9 05:05 1983 ./stare.b.16
rw-r--r--  0/10  10862 Mar  9 05:05 1983 ./stare.b.16r
rw-r--r--  0/10  10045 Mar  9 05:05 1983 ./oldenglish.14r
rw-r--r--  0/10   5301 Mar  9 05:05 1983 ./cm.b.6
rw-r--r--  0/10   5269 Mar  9 05:05 1983 ./cm.r.7
rw-r--r--  0/10   6747 Mar  9 05:05 1983 ./cm.i.8
rw-r--r--  0/10   9414 Mar  9 05:05 1983 ./cm.i.11
rw-r--r--  0/10   6126 Mar  9 05:05 1983 ./cm.b.8
rw-r--r--  0/10   6927 Mar  9 05:05 1983 ./cm.b.9
rw-r--r--  0/10   5297 Mar  9 05:05 1983 ./cm.b.6r
rw-r--r--  0/10   5322 Mar  9 05:05 1983 ./cm.r.7r
rw-r--r--  0/10   6060 Mar  9 05:05 1983 ./cm.i.8r
rw-r--r--  0/10   5745 Mar  9 05:05 1983 ./cm.b.8r
rw-r--r--  0/10   7136 Mar  9 05:05 1983 ./cm.b.9r
rw-r--r--  0/10   8802 Mar  9 05:05 1983 ./cm.i.11r
rw-r--r--  0/10  11822 Mar  9 05:05 1983 ./seal.12
rw-r--r--  0/10   7385 Mar  9 05:06 1983 ./seal.10
rw-r--r--  0/10   8017 Mar  9 05:06 1983 ./seal.11
rw-r--r--  0/10  17328 Mar  9 05:06 1983 ./seal.20
rw-r--r--  0/10   5227 Mar  9 05:06 1983 ./seal.7
rw-r--r--  0/10   4836 Mar  9 05:06 1983 ./seal.6
rw-r--r--  0/10   5787 Mar  9 05:06 1983 ./seal.8
rw-r--r--  0/10   6539 Mar  9 05:06 1983 ./seal.9
rw-r--r--  0/10   6697 Mar  9 05:06 1983 ./R.10r.tef
rw-r--r--  0/10  10985 Mar  9 05:06 1983 ./seal.12r
rw-r--r--  0/10  24615 Mar  9 05:06 1983 ./BB.24
rw-r--r--  0/10  51237 Mar  9 05:06 1983 ./BB.36
rw-r--r--  0/10   8520 Mar  9 05:06 1983 ./otimes.b.10
rw-r--r--  0/10   6074 Mar  9 05:06 1983 ./times.b.11
rw-r--r--  0/10   6604 Mar  9 05:06 1983 ./times.b.12
rw-r--r--  0/10   8422 Mar  9 05:06 1983 ./times.b.14
rw-r--r--  0/10   9845 Mar  9 05:06 1983 ./times.b.16
rw-r--r--  0/10  11679 Mar  9 05:06 1983 ./times.b.18
rw-r--r--  0/10  13807 Mar  9 05:06 1983 ./times.b.20
rw-r--r--  0/10  15886 Mar  9 05:06 1983 ./times.b.22
rw-r--r--  0/10  18143 Mar  9 05:06 1983 ./times.b.24
rw-r--r--  0/10  23546 Mar  9 05:06 1983 ./times.b.28
rw-r--r--  0/10  36565 Mar  9 05:06 1983 ./times.b.36
rw-r--r--  0/10   3785 Mar  9 05:06 1983 ./times.b.6
rw-r--r--  0/10   4206 Mar  9 05:06 1983 ./times.b.7
rw-r--r--  0/10   4620 Mar  9 05:06 1983 ./times.b.8
rw-r--r--  0/10   5198 Mar  9 05:06 1983 ./times.b.9
rw-r--r--  0/10   5621 Mar  9 05:06 1983 ./times.i.10
rw-r--r--  0/10   6152 Mar  9 05:06 1983 ./times.i.11
rw-r--r--  0/10   6711 Mar  9 05:06 1983 ./times.i.12
rw-r--r--  0/10   8286 Mar  9 05:06 1983 ./times.i.14
rw-r--r--  0/10   9687 Mar  9 05:07 1983 ./times.i.16
rw-r--r--  0/10  11164 Mar  9 05:07 1983 ./times.i.18
rw-r--r--  0/10  13390 Mar  9 05:07 1983 ./times.i.20
rw-r--r--  0/10  15187 Mar  9 05:07 1983 ./times.i.22
rw-r--r--  0/10  17491 Mar  9 05:07 1983 ./times.i.24
rw-r--r--  0/10  22799 Mar  9 05:07 1983 ./times.i.28
rw-r--r--  0/10  34709 Mar  9 05:07 1983 ./times.i.36
rw-r--r--  0/10   3778 Mar  9 05:07 1983 ./times.i.6
rw-r--r--  0/10   4223 Mar  9 05:07 1983 ./times.i.7
rw-r--r--  0/10   4700 Mar  9 05:07 1983 ./times.i.8
rw-r--r--  0/10   5081 Mar  9 05:07 1983 ./times.i.9
rw-r--r--  0/10   6538 Mar  9 05:07 1983 ./times.r.10
rw-r--r--  0/10   7191 Mar  9 05:07 1983 ./times.r.11
rw-r--r--  0/10   8191 Mar  9 05:07 1983 ./times.r.12
rw-r--r--  0/10  10060 Mar  9 05:07 1983 ./times.r.14
rw-r--r--  0/10  11951 Mar  9 05:07 1983 ./times.r.16
rw-r--r--  0/10  13909 Mar  9 05:07 1983 ./times.r.18
rw-r--r--  0/10  16426 Mar  9 05:07 1983 ./times.r.20
rw-r--r--  0/10  19277 Mar  9 05:07 1983 ./times.r.22
rw-r--r--  0/10  22324 Mar  9 05:07 1983 ./times.r.24
rw-r--r--  0/10  29141 Mar  9 05:07 1983 ./times.r.28
rw-r--r--  0/10  45524 Mar  9 05:07 1983 ./times.r.36
rw-r--r--  0/10   4233 Mar  9 05:07 1983 ./times.r.6
rw-r--r--  0/10   4717 Mar  9 05:07 1983 ./times.r.7
rw-r--r--  0/10   5340 Mar  9 05:07 1983 ./times.r.8
rw-r--r--  0/10   5945 Mar  9 05:07 1983 ./times.r.9
rw-r--r--  0/10   6527 Mar  9 05:07 1983 ./times.s.10
rw-r--r--  0/10   7139 Mar  9 05:07 1983 ./times.s.11
rw-r--r--  0/10   7919 Mar  9 05:07 1983 ./times.s.12
rw-r--r--  0/10   9556 Mar  9 05:07 1983 ./times.s.14
rw-r--r--  0/10  11350 Mar  9 05:07 1983 ./times.s.16
rw-r--r--  0/10  13478 Mar  9 05:07 1983 ./times.s.18
rw-r--r--  0/10  15815 Mar  9 05:08 1983 ./times.s.20
rw-r--r--  0/10  18410 Mar  9 05:08 1983 ./times.s.22
rw-r--r--  0/10  21371 Mar  9 05:08 1983 ./times.s.24
rw-r--r--  0/10  27849 Mar  9 05:08 1983 ./times.s.28
rw-r--r--  0/10  43703 Mar  9 05:08 1983 ./times.s.36
rw-r--r--  0/10   4227 Mar  9 05:08 1983 ./times.s.6
rw-r--r--  0/10   4588 Mar  9 05:08 1983 ./times.s.7
rw-r--r--  0/10   5066 Mar  9 05:08 1983 ./times.s.8
rw-r--r--  0/10   5801 Mar  9 05:08 1983 ./times.s.9
rw-r--r--  0/10   6446 Mar  9 05:08 1983 ./times.r.10r
rw-r--r--  0/10   5633 Mar  9 05:08 1983 ./times.i.10r
rw-r--r--  0/10   5607 Mar  9 05:08 1983 ./times.b.10r
rw-r--r--  0/10   6327 Mar  9 05:08 1983 ./times.s.10r
rw-r--r--  0/10   7660 Mar  9 05:08 1983 ./times.r.12r
rw-r--r--  0/10   6384 Mar  9 05:08 1983 ./times.i.12r
rw-r--r--  0/10   6306 Mar  9 05:08 1983 ./times.b.12r
rw-r--r--  0/10   7529 Mar  9 05:08 1983 ./times.s.12r
rw-r--r--  0/10   4962 Mar  9 05:08 1983 ./times.r.8r
rw-r--r--  0/10   4436 Mar  9 05:08 1983 ./times.i.8r
rw-r--r--  0/10   4398 Mar  9 05:08 1983 ./times.b.8r
rw-r--r--  0/10   5015 Mar  9 05:08 1983 ./times.s.8r
rw-r--r--  0/10   5995 Mar  9 05:08 1983 ./times.r.9r
rw-r--r--  0/10   5041 Mar  9 05:08 1983 ./times.i.9r
rw-r--r--  0/10   5323 Mar  9 05:08 1983 ./times.b.9r
rw-r--r--  0/10   5650 Mar  9 05:08 1983 ./times.s.9r
rw-r--r--  0/10   4174 Mar  9 05:08 1983 ./times.r.6r
rw-r--r--  0/10   3800 Mar  9 05:08 1983 ./times.i.6r
rw-r--r--  0/10   3788 Mar  9 05:08 1983 ./times.b.6r
rw-r--r--  0/10   4088 Mar  9 05:09 1983 ./times.s.6r
rw-r--r--  0/10   4601 Mar  9 05:09 1983 ./times.r.7r
rw-r--r--  0/10   4139 Mar  9 05:09 1983 ./times.i.7r
rw-r--r--  0/10   4119 Mar  9 05:09 1983 ./times.b.7r
rw-r--r--  0/10   4593 Mar  9 05:09 1983 ./times.s.7r
rw-r--r--  0/10   9911 Mar  9 05:09 1983 ./times.r.14r
rw-r--r--  0/10   8439 Mar  9 05:09 1983 ./times.i.14r
rw-r--r--  0/10   8333 Mar  9 05:09 1983 ./times.b.14r
rw-r--r--  0/10   9590 Mar  9 05:09 1983 ./times.s.14r
rw-r--r--  0/10  11190 Mar  9 05:09 1983 ./times.r.16r
rw-r--r--  0/10   9179 Mar  9 05:09 1983 ./times.i.16r
rw-r--r--  0/10   9274 Mar  9 05:09 1983 ./times.b.16r
rw-r--r--  0/10  10963 Mar  9 05:09 1983 ./times.s.16r
rw-r--r--  0/10  13796 Mar  9 05:09 1983 ./times.r.18r
rw-r--r--  0/10  11512 Mar  9 05:09 1983 ./times.i.18r
rw-r--r--  0/10  11728 Mar  9 05:09 1983 ./times.b.18r
rw-r--r--  0/10  13255 Mar  9 05:09 1983 ./times.s.18r
rw-r--r--  0/10  15748 Mar  9 05:09 1983 ./times.r.20r
rw-r--r--  0/10  12933 Mar  9 05:09 1983 ./times.i.20r
rw-r--r--  0/10  13085 Mar  9 05:09 1983 ./times.b.20r
rw-r--r--  0/10  15438 Mar  9 05:09 1983 ./times.s.20r
rw-r--r--  0/10  19251 Mar  9 05:09 1983 ./times.r.22r
rw-r--r--  0/10  15134 Mar  9 05:09 1983 ./times.i.22r
rw-r--r--  0/10  16038 Mar  9 05:09 1983 ./times.b.22r
rw-r--r--  0/10  18167 Mar  9 05:09 1983 ./times.s.22r
rw-r--r--  0/10  21325 Mar  9 05:09 1983 ./times.r.24r
rw-r--r--  0/10  17132 Mar  9 05:09 1983 ./times.i.24r
rw-r--r--  0/10  17454 Mar  9 05:09 1983 ./times.b.24r
rw-r--r--  0/10  20928 Mar  9 05:09 1983 ./times.s.24r
rw-r--r--  0/10  27984 Mar  9 05:09 1983 ./times.r.28r
rw-r--r--  0/10  22597 Mar  9 05:10 1983 ./times.i.28r
rw-r--r--  0/10  23004 Mar  9 05:10 1983 ./times.b.28r
rw-r--r--  0/10  27382 Mar  9 05:10 1983 ./times.s.28r
rw-r--r--  0/10  44162 Mar  9 05:10 1983 ./times.r.36r
rw-r--r--  0/10  35322 Mar  9 05:10 1983 ./times.i.36r
rw-r--r--  0/10  35875 Mar  9 05:10 1983 ./times.b.36r
rw-r--r--  0/10  42864 Mar  9 05:10 1983 ./times.s.36r
rw-r--r--  0/10   1076 Oct 21 09:14 1983 ./fontmap
rwxrwxr-x  0/10      0 Sep  1 05:45 1983 ./fix.8 symbolic link to fix.9
rwxrwxr-x  0/10      0 Sep  1 05:45 1983 ./fix.8r symbolic link to fix.9r
